<?xml version="1.0" encoding="UTF-8" standalone="no"?>
<svg
   xmlns:dc="http://purl.org/dc/elements/1.1/"
   xmlns:cc="http://creativecommons.org/ns#"
   xmlns:rdf="http://www.w3.org/1999/02/22-rdf-syntax-ns#"
   xmlns:svg="http://www.w3.org/2000/svg"
   xmlns="http://www.w3.org/2000/svg"
   height="512"
   width="512"
   id="svg3725"
   version="1.1"
   viewBox="0 0 512 512">
  <metadata
     id="metadata3731">
    <rdf:RDF>
      <cc:Work
         rdf:about="">
        <dc:format>image/svg+xml</dc:format>
        <dc:type
           rdf:resource="http://purl.org/dc/dcmitype/StillImage" />
        <dc:title></dc:title>
      </cc:Work>
    </rdf:RDF>
  </metadata>
  <defs
     id="defs3729" />
  <path
     style="fill:#ffffff;fill-opacity:1;stroke:none"
     id="path3723"
     d="m 480,73.143 v 45.714 C 480,159.143 379.667,192 256,192 132.333,192 32,159.143 32,118.857 V 73.143 C 32,32.857 132.333,0 256,0 379.667,0 480,32.857 480,73.143 Z M 480,176 V 278.857 C 480,319.143 379.667,352 256,352 132.333,352 32,319.143 32,278.857 V 176 c 48.125,33.143 136.208,48.572 224,48.572 87.792,0 175.874,-15.429 224,-48.572 z m 0,160 V 438.857 C 480,479.143 379.667,512 256,512 132.333,512 32,479.143 32,438.857 V 336 c 48.125,33.143 136.208,48.572 224,48.572 87.792,0 175.874,-15.429 224,-48.572 z" />
</svg>
