<?xml version="1.0" encoding="utf-8"?>
<!-- Generator: Adobe Illustrator 23.0.3, SVG Export Plug-In . SVG Version: 6.00 Build 0)  -->
<svg version="1.1" id="Слой_1" xmlns="http://www.w3.org/2000/svg" xmlns:xlink="http://www.w3.org/1999/xlink" x="0px" y="0px"
	 viewBox="0 0 64 34.1" style="enable-background:new 0 0 64 34.1;" xml:space="preserve">
<g>
	<path d="M21.5,17.8c0,4.6,4,6.1,4,6.1c0,0.1-0.6,2.2-2.1,4.3c-1.3,1.8-2.6,3.7-4.6,3.7c-2,0-2.7-1.2-5-1.2c-2.3,0-3,1.2-4.9,1.2
		c-2,0.1-3.5-2-4.8-3.8C1.6,24.4-0.4,17.6,2.3,13C3.6,10.7,6,9.2,8.5,9.2c1.9,0,3.8,1.3,5,1.3s3.4-1.6,5.8-1.4c1,0,3.7,0.4,5.5,3
		C24.6,12.2,21.5,14,21.5,17.8 M17.7,6.6c1-1.3,1.8-3,1.6-4.8c-1.5,0.1-3.3,1-4.5,2.3c-1,1.1-1.8,2.9-1.6,4.7
		C14.9,8.9,16.7,7.9,17.7,6.6"/>
	<path d="M40.3,31.6c-1.3,0.4-2.6,0.5-4,0.5c-3.2,0-4.8-1.8-4.8-5.4V10.9h-2.7V8h2.9V4.3l3.8-1.6v5.3H40v2.9h-4.4v15
		c0,1.2,0.2,1.9,0.6,2.4s1,0.7,1.9,0.7c0.5,0,1.3-0.1,2.3-0.3V31.6z"/>
	<path d="M54.1,31.8h-4.7L40.8,8H45l5.2,15.5c0.2,0.6,0.7,2.3,1.5,5.2l0.8-2.6l0.9-2.6L58.8,8H63L54.1,31.8z"/>
</g>
</svg>
