<?xml version="1.0" encoding="utf-8"?>
<!-- Generator: Adobe Illustrator 23.0.3, SVG Export Plug-In . SVG Version: 6.00 Build 0)  -->
<svg version="1.1"
	 id="svg4" xmlns:cc="http://creativecommons.org/ns#" xmlns:dc="http://purl.org/dc/elements/1.1/" xmlns:rdf="http://www.w3.org/1999/02/22-rdf-syntax-ns#" xmlns:svg="http://www.w3.org/2000/svg"
	 xmlns="http://www.w3.org/2000/svg" xmlns:xlink="http://www.w3.org/1999/xlink" x="0px" y="0px" viewBox="0 0 64 64"
	 style="enable-background:new 0 0 64 64;" xml:space="preserve">
<style type="text/css">
	.st0{fill:#110B09;}
	.st1{fill:#FFFFFF;}
</style>
<g id="g1952" transform="translate(0.011365,0.179)">
	<path id="path2" class="st0" d="M53.18,51.1L41.7,31.79l11.48-19.31l5.53,19.31L53.18,51.1z M27.63,49.22L13.21,34.91h22.96
		l11.48,19.31L27.63,49.22z M27.63,14.3l19.96-5L36.11,28.61H13.15L27.63,14.3z M56.95-0.18L30.87,6.59l-3.89,6.65l-7.83-0.06
		L0.02,31.79L19.15,50.4l7.83-0.06l3.89,6.65l26.08,6.83l7.01-25.38l-3.95-6.59l3.95-6.59L56.95-0.18z"/>
	<path id="path4556" class="st1" d="M13.15,28.61L27.63,14.3l19.96-5L36.11,28.61H13.15z"/>
	<path id="path4558" class="st1" d="M53.18,12.48l5.53,19.31L53.18,51.1L41.7,31.79L53.18,12.48z"/>
	<path id="path4560" class="st1" d="M36.17,34.91l11.48,19.31l-20.02-5L13.21,34.91H36.17z"/>
</g>
</svg>
